G04 DesignSpark PCB Gerber Version 10.0 Build 5299*
%FSLAX35Y35*%
%MOIN*%
%ADD21C,0.00394*%
%ADD122C,0.02323*%
%ADD77C,0.03898*%
%ADD162C,0.07835*%
X0Y0D02*
D02*
D21*
X74173Y67388D02*
Y447D01*
X42697D01*
Y45782D01*
X31693D01*
Y6412D01*
X19882D01*
Y197D01*
X197D01*
Y67388D01*
X1339D01*
Y106758D01*
X24961D01*
Y67388D01*
X47638D01*
Y106758D01*
X72205D01*
Y67388D01*
X74173D01*
D02*
D77*
X4010Y59252D03*
X21024D03*
X23642Y10302D03*
Y43793D03*
X44646Y59372D03*
X50551Y8333D03*
X53510Y43754D03*
D02*
D122*
X3307Y69357D03*
X7244D03*
X11181D03*
X15118D03*
X19055D03*
X22992D03*
X50551D03*
X54488D03*
X58425D03*
X62362D03*
X66299D03*
X70236D03*
D02*
D162*
X197Y15034D03*
Y30034D03*
X394Y91010D03*
Y101010D03*
X11510Y197D03*
X24961Y91010D03*
Y101010D03*
X42697Y15534D03*
Y30534D03*
X47638Y91010D03*
Y101010D03*
X53510Y447D03*
X72205Y91010D03*
Y101010D03*
X0Y0D02*
M02*
