G04 DesignSpark PCB Gerber Version 10.0 Build 5299*
%FSLAX35Y35*%
%MOIN*%
%ADD91R,0.02559X0.06004*%
%ADD94R,0.04803X0.10709*%
%ADD21C,0.00394*%
%ADD22C,0.01000*%
%ADD90C,0.01575*%
%ADD24C,0.03937*%
%ADD76C,0.07874*%
%ADD92R,0.03543X0.02992*%
X0Y0D02*
D02*
D21*
X74173Y67388D02*
Y447D01*
X42697D01*
Y45782D01*
X31693D01*
Y6412D01*
X19882D01*
Y197D01*
X197D01*
Y67388D01*
X1339D01*
Y106758D01*
X24961D01*
Y67388D01*
X47638D01*
Y106758D01*
X72205D01*
Y67388D01*
X74173D01*
D02*
D22*
X18642Y10900D02*
Y32254D01*
Y10900D02*
X23642D01*
X18642Y32254D02*
X23642D01*
X19010Y59252D02*
X21024D01*
X23642Y10900D02*
Y10302D01*
Y32254D02*
Y10900D01*
X26884Y43504D02*
X23931D01*
X23642Y43793D01*
X47008Y59372D02*
X44646D01*
X53012Y10900D02*
Y10794D01*
X50551Y8333D01*
D02*
D24*
X197Y15034D02*
X5045Y19882D01*
X19384D01*
X23642Y15624D01*
Y10900D01*
X197Y30034D02*
X9289D01*
X11510Y32254D01*
X13642D01*
X4010Y59252D03*
X7677Y100971D02*
X433D01*
X394Y101010D01*
X11510Y197D02*
X13642Y2329D01*
Y10900D01*
X21024Y59252D03*
X23642Y10302D03*
Y32254D02*
Y54620D01*
X19010Y59252D01*
X23642Y43793D03*
X24961Y101010D02*
X24921Y100971D01*
X17677D01*
X42697Y15534D02*
X47331Y10900D01*
X53012D01*
X44646Y59372D03*
X47008D02*
Y52187D01*
X53898Y45298D01*
X50551Y8333D03*
X53447Y510D02*
X53510Y447D01*
Y43754D03*
X54921Y100971D02*
X47677D01*
X47638Y101010D01*
X72205D02*
X72165Y100971D01*
X64921D01*
D02*
D76*
X197Y15034D03*
Y30034D03*
X394Y91010D03*
Y101010D03*
X11510Y197D03*
X24961Y91010D03*
Y101010D03*
X42697Y15534D03*
Y30534D03*
X47638Y91010D03*
Y101010D03*
X53510Y447D03*
X72205Y91010D03*
Y101010D03*
D02*
D90*
X4010Y59252D02*
X7677Y76404D02*
Y75459D01*
X9843Y73294D01*
X20472D01*
X22047Y74869D01*
Y88097D01*
X24961Y91010D01*
X11884Y43504D02*
Y34012D01*
X13642Y32254D01*
X17677Y76404D02*
Y81601D01*
X8268Y91010D01*
X394D01*
X42697Y30534D02*
Y29648D01*
X46142Y26203D01*
X57028D01*
X58012Y27187D01*
Y32254D01*
X54921Y76404D02*
Y75459D01*
X57087Y73294D01*
X67717D01*
X69291Y74869D01*
Y88097D01*
X72205Y91010D01*
X58012Y10900D02*
X63012D01*
X58012Y32254D02*
Y10900D01*
X62008Y59372D02*
Y33258D01*
X63012Y32254D01*
X58012D01*
X64921Y76404D02*
Y81601D01*
X55512Y91010D01*
X47638D01*
X68012Y32254D02*
Y44412D01*
X68898Y45298D01*
X68012Y32254D02*
X69717D01*
X71437Y30534D01*
Y4943D01*
X69961Y3467D01*
X56404D01*
X53510Y447D01*
D02*
D91*
X13642Y10900D03*
Y32254D03*
X18642Y10900D03*
Y32254D03*
X23642Y10900D03*
Y32254D03*
X28642Y10900D03*
Y32254D03*
X53012Y10900D03*
Y32254D03*
X58012Y10900D03*
Y32254D03*
X63012Y10900D03*
Y32254D03*
X68012Y10900D03*
Y32254D03*
D02*
D92*
X7677Y76404D03*
Y100971D03*
X17677Y76404D03*
Y100971D03*
X54921Y76404D03*
Y100971D03*
X64921Y76404D03*
Y100971D03*
D02*
D94*
X4010Y59252D03*
X11884Y43504D03*
X19010Y59252D03*
X26884Y43504D03*
X47008Y59372D03*
X53898Y45298D03*
X62008Y59372D03*
X68898Y45298D03*
X0Y0D02*
M02*
